{
    "m_GameObject": {
        "m_FileID": 0,
        "m_PathID": 0
    },
    "m_Enabled": 1,
    "m_Script": {
        "m_FileID": 0,
        "m_PathID": 5812833946668022119
    },
    "m_Name": "lies",
    "Normal": {
        "m_FileID": 0,
        "m_PathID": -3776221984598757709
    },
    "Smile": {
        "m_FileID": 0,
        "m_PathID": -1747479948485006703
    },
    "Sad": {
        "m_FileID": 0,
        "m_PathID": -6709174449373890855
    },
    "Angry": {
        "m_FileID": 0,
        "m_PathID": 8534965838575611131
    }
}