{
    "m_GameObject": {
        "m_FileID": 0,
        "m_PathID": 0
    },
    "m_Enabled": 1,
    "m_Script": {
        "m_FileID": 0,
        "m_PathID": 6977038181255344417
    },
    "m_Name": "GachaTopBGAnimationSettings",
    "GachaImages": [
        {
            "ImageName": "GachaImages_cp01",
            "IsAnim": 0
        },
        {
            "ImageName": "GachaImages_cp02",
            "IsAnim": 0
        },
        {
            "ImageName": "GachaImages_cp03",
            "IsAnim": 0
        },
        {
            "ImageName": "GachaImages_cp04",
            "IsAnim": 1
        },
        {
            "ImageName": "GachaImages_cp05",
            "IsAnim": 0
        },
        {
            "ImageName": "GachaImages_cp06",
            "IsAnim": 1
        },
        {
            "ImageName": "GachaImages_cp07",
            "IsAnim": 1
        },
        {
            "ImageName": "GachaImages_cp08",
            "IsAnim": 1
        },
        {
            "ImageName": "GachaImages_cp09",
            "IsAnim": 1
        },
        {
            "ImageName": "GachaImages_cp100",
            "IsAnim": 1
        },
        {
            "ImageName": "GachaImages_cp10",
            "IsAnim": 1
        },
        {
            "ImageName": "GachaImages_cp11",
            "IsAnim": 1
        },
        {
            "ImageName": "GachaImages_cp12",
            "IsAnim": 1
        },
        {
            "ImageName": "GachaImages_cp13",
            "IsAnim": 0
        },
        {
            "ImageName": "GachaImages_cp14",
            "IsAnim": 0
        },
        {
            "ImageName": "GachaImages_cp15",
            "IsAnim": 0
        },
        {
            "ImageName": "GachaImages_cp16",
            "IsAnim": 0
        },
        {
            "ImageName": "GachaImages_cp17",
            "IsAnim": 0
        },
        {
            "ImageName": "GachaImages_cp18",
            "IsAnim": 0
        },
        {
            "ImageName": "GachaImages_cp19",
            "IsAnim": 0
        },
        {
            "ImageName": "GachaImages_cp20",
            "IsAnim": 0
        },
        {
            "ImageName": "GachaImages_cp21",
            "IsAnim": 0
        },
        {
            "ImageName": "GachaImages_cp22",
            "IsAnim": 0
        },
        {
            "ImageName": "GachaImages_cp23",
            "IsAnim": 0
        },
        {
            "ImageName": "GachaImages_cp24",
            "IsAnim": 0
        },
        {
            "ImageName": "GachaImages_cp25",
            "IsAnim": 0
        },
        {
            "ImageName": "GachaImages_cp26",
            "IsAnim": 0
        },
        {
            "ImageName": "GachaImages_cp27",
            "IsAnim": 0
        },
        {
            "ImageName": "GachaImages_cp28",
            "IsAnim": 0
        },
        {
            "ImageName": "GachaImages_cp29",
            "IsAnim": 0
        },
        {
            "ImageName": "GachaImages_cp30",
            "IsAnim": 0
        },
        {
            "ImageName": "GachaImages_cp31",
            "IsAnim": 0
        },
        {
            "ImageName": "GachaImages_cp32",
            "IsAnim": 1
        },
        {
            "ImageName": "GachaImages_cp33",
            "IsAnim": 1
        },
        {
            "ImageName": "GachaImages_cp34",
            "IsAnim": 0
        },
        {
            "ImageName": "GachaImages_cp35",
            "IsAnim": 0
        },
        {
            "ImageName": "GachaImages_cp36",
            "IsAnim": 0
        },
        {
            "ImageName": "GachaImages_cp37",
            "IsAnim": 0
        },
        {
            "ImageName": "GachaImages_cp38",
            "IsAnim": 0
        },
        {
            "ImageName": "GachaImages_cp39",
            "IsAnim": 0
        },
        {
            "ImageName": "GachaImages_cp40",
            "IsAnim": 0
        },
        {
            "ImageName": "GachaImages_cp41",
            "IsAnim": 0
        },
        {
            "ImageName": "GachaImages_cp42",
            "IsAnim": 0
        },
        {
            "ImageName": "GachaImages_cp43",
            "IsAnim": 0
        },
        {
            "ImageName": "GachaImages_cp44",
            "IsAnim": 1
        },
        {
            "ImageName": "GachaImages_cp45",
            "IsAnim": 1
        },
        {
            "ImageName": "GachaImages_cp46",
            "IsAnim": 1
        },
        {
            "ImageName": "GachaImages_cp47",
            "IsAnim": 1
        },
        {
            "ImageName": "GachaImages_cp48",
            "IsAnim": 1
        },
        {
            "ImageName": "GachaImages_cp49",
            "IsAnim": 1
        },
        {
            "ImageName": "GachaImages_cp50",
            "IsAnim": 1
        },
        {
            "ImageName": "GachaImages_cp51",
            "IsAnim": 1
        },
        {
            "ImageName": "GachaImages_cp54",
            "IsAnim": 0
        },
        {
            "ImageName": "GachaImages_cp55",
            "IsAnim": 0
        },
        {
            "ImageName": "GachaImages_cp56",
            "IsAnim": 0
        },
        {
            "ImageName": "GachaImages_cp57",
            "IsAnim": 0
        },
        {
            "ImageName": "GachaImages_cp58",
            "IsAnim": 0
        },
        {
            "ImageName": "GachaImages_cp59",
            "IsAnim": 0
        },
        {
            "ImageName": "GachaImages_cp60",
            "IsAnim": 0
        },
        {
            "ImageName": "GachaImages_cp61",
            "IsAnim": 1
        },
        {
            "ImageName": "GachaImages_cp62",
            "IsAnim": 1
        },
        {
            "ImageName": "GachaImages_cp63",
            "IsAnim": 1
        },
        {
            "ImageName": "GachaImages_cp64",
            "IsAnim": 1
        },
        {
            "ImageName": "GachaImages_cp65",
            "IsAnim": 1
        },
        {
            "ImageName": "GachaImages_cp66",
            "IsAnim": 1
        },
        {
            "ImageName": "GachaImages_cp67",
            "IsAnim": 1
        },
        {
            "ImageName": "GachaImages_cp68",
            "IsAnim": 1
        },
        {
            "ImageName": "GachaImages_cp69",
            "IsAnim": 1
        },
        {
            "ImageName": "GachaImages_cp70",
            "IsAnim": 1
        },
        {
            "ImageName": "GachaImages_cp71",
            "IsAnim": 1
        },
        {
            "ImageName": "GachaImages_cp72",
            "IsAnim": 1
        },
        {
            "ImageName": "GachaImages_cp73",
            "IsAnim": 1
        },
        {
            "ImageName": "GachaImages_cp74",
            "IsAnim": 1
        },
        {
            "ImageName": "GachaImages_cp75",
            "IsAnim": 1
        },
        {
            "ImageName": "GachaImages_cp76",
            "IsAnim": 1
        },
        {
            "ImageName": "GachaImages_cp77",
            "IsAnim": 1
        },
        {
            "ImageName": "GachaImages_cp78",
            "IsAnim": 1
        },
        {
            "ImageName": "GachaImages_cp79",
            "IsAnim": 1
        },
        {
            "ImageName": "GachaImages_cp80",
            "IsAnim": 1
        },
        {
            "ImageName": "GachaImages_cp81",
            "IsAnim": 1
        },
        {
            "ImageName": "GachaImages_cp82",
            "IsAnim": 1
        },
        {
            "ImageName": "GachaImages_cp83",
            "IsAnim": 1
        },
        {
            "ImageName": "GachaImages_cp84",
            "IsAnim": 1
        },
        {
            "ImageName": "GachaImages_cp85",
            "IsAnim": 1
        },
        {
            "ImageName": "GachaImages_cp86",
            "IsAnim": 1
        },
        {
            "ImageName": "GachaImages_cp87",
            "IsAnim": 1
        },
        {
            "ImageName": "GachaImages_cp88",
            "IsAnim": 1
        },
        {
            "ImageName": "GachaImages_cp89",
            "IsAnim": 1
        },
        {
            "ImageName": "GachaImages_cp90",
            "IsAnim": 1
        },
        {
            "ImageName": "GachaImages_cp91",
            "IsAnim": 1
        },
        {
            "ImageName": "GachaImages_cp92",
            "IsAnim": 1
        },
        {
            "ImageName": "GachaImages_cp93",
            "IsAnim": 1
        },
        {
            "ImageName": "GachaImages_cp94",
            "IsAnim": 1
        },
        {
            "ImageName": "GachaImages_cp95",
            "IsAnim": 1
        },
        {
            "ImageName": "GachaImages_cp96",
            "IsAnim": 1
        },
        {
            "ImageName": "GachaImages_cp97",
            "IsAnim": 1
        },
        {
            "ImageName": "GachaImages_cp98",
            "IsAnim": 1
        },
        {
            "ImageName": "GachaImages_cp99",
            "IsAnim": 1
        },
        {
            "ImageName": "GachaImages_nensostep01",
            "IsAnim": 1
        },
        {
            "ImageName": "GachaImages_nensostep02",
            "IsAnim": 1
        },
        {
            "ImageName": "GachaImages_nensostep03",
            "IsAnim": 1
        },
        {
            "ImageName": "GachaImages_nensostep04",
            "IsAnim": 1
        },
        {
            "ImageName": "GachaImages_nensostep05",
            "IsAnim": 1
        },
        {
            "ImageName": "GachaImages_nensostep06",
            "IsAnim": 1
        },
        {
            "ImageName": "GachaImages_nensostep07",
            "IsAnim": 1
        },
        {
            "ImageName": "GachaImages_nensostep08",
            "IsAnim": 1
        },
        {
            "ImageName": "GachaImages_nensostep09",
            "IsAnim": 1
        },
        {
            "ImageName": "GachaImages_nensostep10",
            "IsAnim": 1
        },
        {
            "ImageName": "GachaImages_nensostep11",
            "IsAnim": 1
        },
        {
            "ImageName": "GachaImages_nensostep12",
            "IsAnim": 1
        },
        {
            "ImageName": "GachaImages_nensostep13",
            "IsAnim": 1
        },
        {
            "ImageName": "GachaImages_nensostep14",
            "IsAnim": 1
        },
        {
            "ImageName": "GachaImages_nensostep15",
            "IsAnim": 1
        },
        {
            "ImageName": "GachaImages_nensostep16",
            "IsAnim": 1
        },
        {
            "ImageName": "GachaImages_nensostep17",
            "IsAnim": 1
        },
        {
            "ImageName": "GachaImages_nensostep18",
            "IsAnim": 1
        },
        {
            "ImageName": "GachaImages_nensostep19",
            "IsAnim": 1
        },
        {
            "ImageName": "GachaImages_nensostep20",
            "IsAnim": 1
        },
        {
            "ImageName": "GachaImages_nensostep21",
            "IsAnim": 1
        },
        {
            "ImageName": "GachaImages_nensostep22",
            "IsAnim": 1
        },
        {
            "ImageName": "GachaImages_nensostep23",
            "IsAnim": 1
        },
        {
            "ImageName": "GachaImages_nensostep24",
            "IsAnim": 1
        },
        {
            "ImageName": "GachaImages_nensostep25",
            "IsAnim": 1
        },
        {
            "ImageName": "GachaImages_nensostep26",
            "IsAnim": 1
        },
        {
            "ImageName": "GachaImages_nensostep27",
            "IsAnim": 1
        },
        {
            "ImageName": "GachaImages_nensostep28",
            "IsAnim": 1
        },
        {
            "ImageName": "GachaImages_normal01",
            "IsAnim": 0
        },
        {
            "ImageName": "GachaImages_paid01",
            "IsAnim": 0
        },
        {
            "ImageName": "GachaImages_paid02",
            "IsAnim": 0
        },
        {
            "ImageName": "GachaImages_paid03",
            "IsAnim": 0
        },
        {
            "ImageName": "GachaImages_paid04",
            "IsAnim": 0
        },
        {
            "ImageName": "GachaImages_paid05",
            "IsAnim": 0
        },
        {
            "ImageName": "GachaImages_paid06",
            "IsAnim": 1
        },
        {
            "ImageName": "GachaImages_paid07",
            "IsAnim": 0
        },
        {
            "ImageName": "GachaImages_paid08",
            "IsAnim": 1
        },
        {
            "ImageName": "GachaImages_paid09",
            "IsAnim": 0
        },
        {
            "ImageName": "GachaImages_paid10",
            "IsAnim": 0
        },
        {
            "ImageName": "GachaImages_paid11",
            "IsAnim": 0
        },
        {
            "ImageName": "GachaImages_paid12",
            "IsAnim": 0
        },
        {
            "ImageName": "GachaImages_paid13",
            "IsAnim": 0
        },
        {
            "ImageName": "GachaImages_paid14",
            "IsAnim": 1
        },
        {
            "ImageName": "GachaImages_paid15",
            "IsAnim": 1
        },
        {
            "ImageName": "GachaImages_paid16",
            "IsAnim": 1
        },
        {
            "ImageName": "GachaImages_paid17",
            "IsAnim": 1
        },
        {
            "ImageName": "GachaImages_paid18",
            "IsAnim": 1
        },
        {
            "ImageName": "GachaImages_paid19",
            "IsAnim": 0
        },
        {
            "ImageName": "GachaImages_paid20",
            "IsAnim": 1
        },
        {
            "ImageName": "GachaImages_paid21",
            "IsAnim": 1
        },
        {
            "ImageName": "GachaImages_paid22",
            "IsAnim": 1
        },
        {
            "ImageName": "GachaImages_paid23",
            "IsAnim": 1
        },
        {
            "ImageName": "GachaImages_paid24",
            "IsAnim": 1
        },
        {
            "ImageName": "GachaImages_paid25",
            "IsAnim": 1
        },
        {
            "ImageName": "GachaImages_paid26",
            "IsAnim": 1
        },
        {
            "ImageName": "GachaImages_paid27",
            "IsAnim": 1
        },
        {
            "ImageName": "GachaImages_paid28",
            "IsAnim": 0
        },
        {
            "ImageName": "GachaImages_paid29",
            "IsAnim": 1
        },
        {
            "ImageName": "GachaImages_paid30",
            "IsAnim": 1
        },
        {
            "ImageName": "GachaImages_rarenenso01",
            "IsAnim": 0
        },
        {
            "ImageName": "GachaImages_rarenenso02",
            "IsAnim": 0
        },
        {
            "ImageName": "GachaImages_rarenenso03",
            "IsAnim": 0
        },
        {
            "ImageName": "GachaImages_rareweapon01",
            "IsAnim": 1
        },
        {
            "ImageName": "GachaImages_rareweapon02",
            "IsAnim": 1
        },
        {
            "ImageName": "GachaImages_rareweapon03",
            "IsAnim": 1
        },
        {
            "ImageName": "GachaImages_startdush01",
            "IsAnim": 1
        },
        {
            "ImageName": "GachaImages_startdush02",
            "IsAnim": 1
        },
        {
            "ImageName": "GachaImages_startdush_f01",
            "IsAnim": 0
        },
        {
            "ImageName": "GachaImages_std_paid01",
            "IsAnim": 0
        },
        {
            "ImageName": "GachaImages_std_paid02",
            "IsAnim": 0
        },
        {
            "ImageName": "GachaImages_stepup01",
            "IsAnim": 1
        },
        {
            "ImageName": "GachaImages_stepup02",
            "IsAnim": 1
        },
        {
            "ImageName": "GachaImages_stepup03",
            "IsAnim": 1
        },
        {
            "ImageName": "GachaImages_stepup04",
            "IsAnim": 1
        },
        {
            "ImageName": "GachaImages_stepup05",
            "IsAnim": 1
        },
        {
            "ImageName": "GachaImages_stepup06",
            "IsAnim": 1
        },
        {
            "ImageName": "GachaImages_stepup07",
            "IsAnim": 1
        },
        {
            "ImageName": "GachaImages_stepup08",
            "IsAnim": 1
        },
        {
            "ImageName": "GachaImages_stepup09",
            "IsAnim": 1
        },
        {
            "ImageName": "GachaImages_stepup10",
            "IsAnim": 1
        },
        {
            "ImageName": "GachaImages_stepup11",
            "IsAnim": 1
        },
        {
            "ImageName": "GachaImages_stepup12",
            "IsAnim": 1
        },
        {
            "ImageName": "GachaImages_stepup13",
            "IsAnim": 1
        },
        {
            "ImageName": "GachaImages_stepup14",
            "IsAnim": 1
        },
        {
            "ImageName": "GachaImages_stepup15",
            "IsAnim": 1
        },
        {
            "ImageName": "GachaImages_stepup16",
            "IsAnim": 1
        },
        {
            "ImageName": "GachaImages_stepup17",
            "IsAnim": 1
        },
        {
            "ImageName": "GachaImages_stepup18",
            "IsAnim": 1
        },
        {
            "ImageName": "GachaImages_stepup19",
            "IsAnim": 1
        },
        {
            "ImageName": "GachaImages_stepup20",
            "IsAnim": 1
        },
        {
            "ImageName": "GachaImages_stepup21",
            "IsAnim": 1
        },
        {
            "ImageName": "GachaImages_stepup22",
            "IsAnim": 1
        },
        {
            "ImageName": "GachaImages_stepup23",
            "IsAnim": 1
        },
        {
            "ImageName": "GachaImages_stepup24",
            "IsAnim": 1
        },
        {
            "ImageName": "GachaImages_weaponstep01",
            "IsAnim": 1
        },
        {
            "ImageName": "GachaImages_weaponstep02",
            "IsAnim": 1
        },
        {
            "ImageName": "GachaImages_weaponstep03",
            "IsAnim": 1
        }
    ]
}