[
    {
        "fields": {
            "appeal_id": "g_211125DLC", 
            "end_at": "2021-12-01 23:59:59", 
            "id": 1, 
            "position_chara": -20.0, 
            "position_text": 5.0, 
            "priority": 2, 
            "start_at": "2021-11-25 00:00:00"
        }, 
        "pk": 1
    }, 
    {
        "fields": {
            "appeal_id": "g_211202DLC", 
            "end_at": "2021-12-08 23:59:59", 
            "id": 2, 
            "position_chara": -20.0, 
            "position_text": 5.0, 
            "priority": 2, 
            "start_at": "2021-12-02 00:00:00"
        }, 
        "pk": 2
    }, 
    {
        "fields": {
            "appeal_id": "g_211209DLC", 
            "end_at": "2021-12-15 23:59:59", 
            "id": 3, 
            "position_chara": -20.0, 
            "position_text": 5.0, 
            "priority": 2, 
            "start_at": "2021-12-09 00:00:00"
        }, 
        "pk": 3
    }, 
    {
        "fields": {
            "appeal_id": "g_211216DLC", 
            "end_at": "2021-12-22 23:59:59", 
            "id": 4, 
            "position_chara": -20.0, 
            "position_text": 5.0, 
            "priority": 2, 
            "start_at": "2021-12-16 00:00:00"
        }, 
        "pk": 4
    }, 
    {
        "fields": {
            "appeal_id": "g_211223DLC", 
            "end_at": "2021-12-29 23:59:59", 
            "id": 5, 
            "position_chara": -20.0, 
            "position_text": 5.0, 
            "priority": 2, 
            "start_at": "2021-12-23 00:00:00"
        }, 
        "pk": 5
    }, 
    {
        "fields": {
            "appeal_id": "g_211230DLC", 
            "end_at": "2022-01-05 23:59:59", 
            "id": 6, 
            "position_chara": -20.0, 
            "position_text": 5.0, 
            "priority": 2, 
            "start_at": "2021-12-30 00:00:00"
        }, 
        "pk": 6
    }, 
    {
        "fields": {
            "appeal_id": "g_220106DLC", 
            "end_at": "2022-01-12 23:59:59", 
            "id": 7, 
            "position_chara": -20.0, 
            "position_text": 5.0, 
            "priority": 2, 
            "start_at": "2022-01-06 00:00:00"
        }, 
        "pk": 7
    }, 
    {
        "fields": {
            "appeal_id": "g_220113DLC", 
            "end_at": "2022-01-19 23:59:59", 
            "id": 8, 
            "position_chara": -20.0, 
            "position_text": 5.0, 
            "priority": 2, 
            "start_at": "2022-01-13 00:00:00"
        }, 
        "pk": 8
    }, 
    {
        "fields": {
            "appeal_id": "g_220120DLC", 
            "end_at": "2022-01-26 23:59:59", 
            "id": 9, 
            "position_chara": -20.0, 
            "position_text": 5.0, 
            "priority": 2, 
            "start_at": "2022-01-20 00:00:00"
        }, 
        "pk": 9
    }, 
    {
        "fields": {
            "appeal_id": "g_220127DLC", 
            "end_at": "2022-02-02 23:59:59", 
            "id": 10, 
            "position_chara": -20.0, 
            "position_text": 5.0, 
            "priority": 2, 
            "start_at": "2022-01-27 00:00:00"
        }, 
        "pk": 10
    }, 
    {
        "fields": {
            "appeal_id": "g_220203DLC", 
            "end_at": "2022-02-09 23:59:59", 
            "id": 11, 
            "position_chara": -20.0, 
            "position_text": 5.0, 
            "priority": 2, 
            "start_at": "2022-02-03 00:00:00"
        }, 
        "pk": 11
    }, 
    {
        "fields": {
            "appeal_id": "g_220210DLC", 
            "end_at": "2022-02-16 23:59:59", 
            "id": 12, 
            "position_chara": -20.0, 
            "position_text": 5.0, 
            "priority": 2, 
            "start_at": "2022-02-10 00:00:00"
        }, 
        "pk": 12
    }, 
    {
        "fields": {
            "appeal_id": "g_220217DLC", 
            "end_at": "2022-02-23 23:59:59", 
            "id": 13, 
            "position_chara": -20.0, 
            "position_text": 5.0, 
            "priority": 2, 
            "start_at": "2022-02-17 00:00:00"
        }, 
        "pk": 13
    }, 
    {
        "fields": {
            "appeal_id": "g_220224DLC", 
            "end_at": "2022-03-02 23:59:59", 
            "id": 14, 
            "position_chara": -20.0, 
            "position_text": 5.0, 
            "priority": 2, 
            "start_at": "2022-02-24 00:00:00"
        }, 
        "pk": 14
    }, 
    {
        "fields": {
            "appeal_id": "g_220303DLC", 
            "end_at": "2022-03-09 23:59:59", 
            "id": 15, 
            "position_chara": -20.0, 
            "position_text": 5.0, 
            "priority": 2, 
            "start_at": "2022-03-03 00:00:00"
        }, 
        "pk": 15
    }, 
    {
        "fields": {
            "appeal_id": "g_220310DLC", 
            "end_at": "2022-03-16 23:59:59", 
            "id": 16, 
            "position_chara": -20.0, 
            "position_text": 5.0, 
            "priority": 2, 
            "start_at": "2022-03-10 00:00:00"
        }, 
        "pk": 16
    }, 
    {
        "fields": {
            "appeal_id": "g_220317DLC", 
            "end_at": "2022-03-23 23:59:59", 
            "id": 17, 
            "position_chara": -20.0, 
            "position_text": 5.0, 
            "priority": 2, 
            "start_at": "2022-03-17 00:00:00"
        }, 
        "pk": 17
    }, 
    {
        "fields": {
            "appeal_id": "g_220324DLC", 
            "end_at": "2022-03-30 23:59:59", 
            "id": 18, 
            "position_chara": -20.0, 
            "position_text": 5.0, 
            "priority": 2, 
            "start_at": "2022-03-24 00:00:00"
        }, 
        "pk": 18
    }, 
    {
        "fields": {
            "appeal_id": "g_220331DLC", 
            "end_at": "2022-04-06 23:59:59", 
            "id": 19, 
            "position_chara": -20.0, 
            "position_text": 5.0, 
            "priority": 2, 
            "start_at": "2022-03-31 00:00:00"
        }, 
        "pk": 19
    }, 
    {
        "fields": {
            "appeal_id": "g_220407DLC", 
            "end_at": "2022-04-13 23:59:59", 
            "id": 20, 
            "position_chara": -20.0, 
            "position_text": 5.0, 
            "priority": 2, 
            "start_at": "2022-04-07 00:00:00"
        }, 
        "pk": 20
    }, 
    {
        "fields": {
            "appeal_id": "g_220414DLC", 
            "end_at": "2022-04-20 23:59:59", 
            "id": 21, 
            "position_chara": -20.0, 
            "position_text": 5.0, 
            "priority": 2, 
            "start_at": "2022-04-14 00:00:00"
        }, 
        "pk": 21
    }, 
    {
        "fields": {
            "appeal_id": "g_220421DLC", 
            "end_at": "2022-04-27 23:59:59", 
            "id": 22, 
            "position_chara": -20.0, 
            "position_text": 5.0, 
            "priority": 2, 
            "start_at": "2022-04-21 00:00:00"
        }, 
        "pk": 22
    }, 
    {
        "fields": {
            "appeal_id": "g_220428DLC", 
            "end_at": "2022-05-04 23:59:59", 
            "id": 23, 
            "position_chara": -20.0, 
            "position_text": 5.0, 
            "priority": 2, 
            "start_at": "2022-04-28 00:00:00"
        }, 
        "pk": 23
    }, 
    {
        "fields": {
            "appeal_id": "g_220505DLC", 
            "end_at": "2022-05-18 23:59:59", 
            "id": 24, 
            "position_chara": -20.0, 
            "position_text": 5.0, 
            "priority": 2, 
            "start_at": "2022-05-05 00:00:00"
        }, 
        "pk": 24
    }, 
    {
        "fields": {
            "appeal_id": "g_220519DLC", 
            "end_at": "2022-05-25 23:59:59", 
            "id": 25, 
            "position_chara": -20.0, 
            "position_text": 5.0, 
            "priority": 2, 
            "start_at": "2022-05-19 00:00:00"
        }, 
        "pk": 25
    }, 
    {
        "fields": {
            "appeal_id": "g_220526DLC", 
            "end_at": "2022-06-01 23:59:59", 
            "id": 26, 
            "position_chara": -20.0, 
            "position_text": 5.0, 
            "priority": 2, 
            "start_at": "2022-05-26 00:00:00"
        }, 
        "pk": 26
    }, 
    {
        "fields": {
            "appeal_id": "g_220602DLC", 
            "end_at": "2022-06-08 23:59:59", 
            "id": 27, 
            "position_chara": -20.0, 
            "position_text": 5.0, 
            "priority": 2, 
            "start_at": "2022-06-02 00:00:00"
        }, 
        "pk": 27
    }, 
    {
        "fields": {
            "appeal_id": "g_220609DLC", 
            "end_at": "2022-06-15 23:59:59", 
            "id": 28, 
            "position_chara": -20.0, 
            "position_text": 5.0, 
            "priority": 2, 
            "start_at": "2022-06-09 00:00:00"
        }, 
        "pk": 28
    }, 
    {
        "fields": {
            "appeal_id": "g_220616DLC", 
            "end_at": "2022-06-22 23:59:59", 
            "id": 29, 
            "position_chara": -20.0, 
            "position_text": 5.0, 
            "priority": 2, 
            "start_at": "2022-06-16 00:00:00"
        }, 
        "pk": 29
    }, 
    {
        "fields": {
            "appeal_id": "g_220623DLC", 
            "end_at": "2022-06-29 23:59:59", 
            "id": 30, 
            "position_chara": -20.0, 
            "position_text": 5.0, 
            "priority": 2, 
            "start_at": "2022-06-23 00:00:00"
        }, 
        "pk": 30
    }, 
    {
        "fields": {
            "appeal_id": "g_220630DLC", 
            "end_at": "2022-07-06 23:59:59", 
            "id": 31, 
            "position_chara": -20.0, 
            "position_text": 5.0, 
            "priority": 2, 
            "start_at": "2022-06-30 00:00:00"
        }, 
        "pk": 31
    }, 
    {
        "fields": {
            "appeal_id": "g_220707DLC", 
            "end_at": "2022-07-13 23:59:59", 
            "id": 32, 
            "position_chara": -20.0, 
            "position_text": 5.0, 
            "priority": 2, 
            "start_at": "2022-07-07 00:00:00"
        }, 
        "pk": 32
    }, 
    {
        "fields": {
            "appeal_id": "g_220714DLC", 
            "end_at": "2022-07-20 23:59:59", 
            "id": 33, 
            "position_chara": -20.0, 
            "position_text": 5.0, 
            "priority": 2, 
            "start_at": "2022-07-14 00:00:00"
        }, 
        "pk": 33
    }, 
    {
        "fields": {
            "appeal_id": "g_220721DLC", 
            "end_at": "2022-07-27 23:59:59", 
            "id": 34, 
            "position_chara": -20.0, 
            "position_text": 5.0, 
            "priority": 2, 
            "start_at": "2022-07-21 00:00:00"
        }, 
        "pk": 34
    }, 
    {
        "fields": {
            "appeal_id": "g_220728DLC", 
            "end_at": "2022-08-03 23:59:59", 
            "id": 35, 
            "position_chara": -20.0, 
            "position_text": 5.0, 
            "priority": 2, 
            "start_at": "2022-07-28 00:00:00"
        }, 
        "pk": 35
    },
	{
        "fields": {
            "appeal_id": "g_220804DLC", 
            "end_at": "2022-08-10 23:59:59", 
            "id": 36, 
            "position_chara": -20.0, 
            "position_text": 5.0, 
            "priority": 2, 
            "start_at": "2022-08-04 00:00:00"
        }, 
        "pk": 36
    },
	{
        "fields": {
            "appeal_id": "g_220811DLC", 
            "end_at": "2022-08-17 23:59:59", 
            "id": 37, 
            "position_chara": -20.0, 
            "position_text": 5.0, 
            "priority": 2, 
            "start_at": "2022-08-11 00:00:00"
        }, 
        "pk": 37
    },
	{
        "fields": {
            "appeal_id": "g_220818DLC", 
            "end_at": "2022-08-24 23:59:59", 
            "id": 38, 
            "position_chara": -20.0, 
            "position_text": 5.0, 
            "priority": 2, 
            "start_at": "2022-08-18 00:00:00"
        }, 
        "pk": 38
    },
	{
        "fields": {
            "appeal_id": "g_220825DLC", 
            "end_at": "2022-08-31 23:59:59", 
            "id": 39, 
            "position_chara": -20.0, 
            "position_text": 5.0, 
            "priority": 2, 
            "start_at": "2022-08-25 00:00:00"
        }, 
        "pk": 39
    },
	{
        "fields": {
            "appeal_id": "g_220901DLC", 
            "end_at": "2022-09-07 23:59:59", 
            "id": 40, 
            "position_chara": -20.0, 
            "position_text": 5.0, 
            "priority": 2, 
            "start_at": "2022-09-01 00:00:00"
        }, 
        "pk": 40
    },
	{
        "fields": {
            "appeal_id": "g_220908DLC", 
            "end_at": "2022-09-14 23:59:59", 
            "id": 41, 
            "position_chara": -20.0, 
            "position_text": 5.0, 
            "priority": 2, 
            "start_at": "2022-09-08 00:00:00"
        }, 
        "pk": 41
    },
	{
        "fields": {
            "appeal_id": "g_220519DLC", 
            "end_at": "2022-09-21 23:59:59", 
            "id": 42, 
            "position_chara": -20.0, 
            "position_text": 5.0, 
            "priority": 2, 
            "start_at": "2022-09-15 00:00:00"
        }, 
        "pk": 42
    },
	{
        "fields": {
            "appeal_id": "g_220922DLC", 
            "end_at": "2022-09-28 23:59:59", 
            "id": 43, 
            "position_chara": -20.0, 
            "position_text": 5.0, 
            "priority": 2, 
            "start_at": "2022-09-22 00:00:00"
        }, 
        "pk": 43
    },
	{
        "fields": {
            "appeal_id": "g_220929DLC", 
            "end_at": "2022-10-05 23:59:59", 
            "id": 44, 
            "position_chara": -20.0, 
            "position_text": 5.0, 
            "priority": 2, 
            "start_at": "2022-09-29 00:00:00"
        }, 
        "pk": 44
    },
	{
        "fields": {
            "appeal_id": "g_221006DLC", 
            "end_at": "2022-10-12 23:59:59", 
            "id": 45, 
            "position_chara": -20.0, 
            "position_text": 5.0, 
            "priority": 2, 
            "start_at": "2022-10-06 00:00:00"
        }, 
        "pk": 45
    },
	{
        "fields": {
            "appeal_id": "g_221013DLC", 
            "end_at": "2022-10-19 23:59:59", 
            "id": 46, 
            "position_chara": -20.0, 
            "position_text": 5.0, 
            "priority": 2, 
            "start_at": "2022-10-13 00:00:00"
        }, 
        "pk": 46
    },
	{
        "fields": {
            "appeal_id": "g_221020DLC", 
            "end_at": "2022-10-26 23:59:59", 
            "id": 47, 
            "position_chara": -20.0, 
            "position_text": 5.0, 
            "priority": 2, 
            "start_at": "2022-10-20 00:00:00"
        }, 
        "pk": 47
    },
	{
        "fields": {
            "appeal_id": "g_221027DLC", 
            "end_at": "2022-11-02 23:59:59", 
            "id": 48, 
            "position_chara": -20.0, 
            "position_text": 5.0, 
            "priority": 2, 
            "start_at": "2022-10-27 00:00:00"
        }, 
        "pk": 48
    },
	{
        "fields": {
            "appeal_id": "g_221103DLC", 
            "end_at": "2022-11-09 23:59:59", 
            "id": 49, 
            "position_chara": -20.0, 
            "position_text": 5.0, 
            "priority": 2, 
            "start_at": "2022-11-03 00:00:00"
        }, 
        "pk": 49
    },
	{
        "fields": {
            "appeal_id": "g_221110DLC", 
            "end_at": "2022-11-16 23:59:59", 
            "id": 50, 
            "position_chara": -20.0, 
            "position_text": 5.0, 
            "priority": 2, 
            "start_at": "2022-11-10 00:00:00"
        }, 
        "pk": 50
    },
	{
        "fields": {
            "appeal_id": "g_220922DLC", 
            "end_at": "2022-11-23 23:59:59", 
            "id": 51, 
            "position_chara": -20.0, 
            "position_text": 5.0, 
            "priority": 2, 
            "start_at": "2022-11-17 00:00:00"
        }, 
        "pk": 51
    },
	{
        "fields": {
            "appeal_id": "g_220929DLC", 
            "end_at": "2022-11-30 23:59:59", 
            "id": 52, 
            "position_chara": -20.0, 
            "position_text": 5.0, 
            "priority": 2, 
            "start_at": "2022-11-24 00:00:00"
        }, 
        "pk": 52
    },
	{
        "fields": {
            "appeal_id": "g_221201DLC", 
            "end_at": "2022-12-07 23:59:59", 
            "id": 53, 
            "position_chara": -20.0, 
            "position_text": 5.0, 
            "priority": 2, 
            "start_at": "2022-12-01 00:00:00"
        }, 
        "pk": 53
    },
	{
        "fields": {
            "appeal_id": "g_221208DLC", 
            "end_at": "2022-12-14 23:59:59", 
            "id": 54, 
            "position_chara": -20.0, 
            "position_text": 5.0, 
            "priority": 2, 
            "start_at": "2022-12-08 00:00:00"
        }, 
        "pk": 54
    },
	{
        "fields": {
            "appeal_id": "g_221215DLC", 
            "end_at": "2022-12-21 23:59:59", 
            "id": 55, 
            "position_chara": -20.0, 
            "position_text": 5.0, 
            "priority": 2, 
            "start_at": "2022-12-15 00:00:00"
        }, 
        "pk": 55
    },
	{
        "fields": {
            "appeal_id": "g_221222DLC", 
            "end_at": "2022-12-28 23:59:59", 
            "id": 56, 
            "position_chara": -20.0, 
            "position_text": 5.0, 
            "priority": 2, 
            "start_at": "2022-12-22 00:00:00"
        }, 
        "pk": 56
    },
	{
        "fields": {
            "appeal_id": "g_221229DLC", 
            "end_at": "2023-01-04 23:59:59", 
            "id": 57, 
            "position_chara": -20.0, 
            "position_text": 5.0, 
            "priority": 2, 
            "start_at": "2022-12-29 00:00:00"
        }, 
        "pk": 57
    },
	{
        "fields": {
            "appeal_id": "g_230105DLC",
            "end_at": "2023-01-11 23:59:59",
            "id": 58,
            "position_chara": -20.0,
            "position_text": 5.0,
            "priority": 2,
            "start_at": "2023-01-05 00:00:00"
        },
        "pk": 58
    },
	{
        "fields": {
            "appeal_id": "g_230112DLC",
            "end_at": "2023-01-18 23:59:59",
            "id": 59,
            "position_chara": -20.0,
            "position_text": 5.0,
            "priority": 2,
            "start_at": "2023-01-12 00:00:00"
        },
        "pk": 59
    },
	{
        "fields": {
            "appeal_id": "g_230119DLC",
            "end_at": "2023-01-25 23:59:59",
            "id": 60,
            "position_chara": -20.0,
            "position_text": 5.0,
            "priority": 2,
            "start_at": "2023-01-19 00:00:00"
        },
        "pk": 60
    },
	{
        "fields": {
            "appeal_id": "g_230126DLC",
            "end_at": "2023-02-01 23:59:59",
            "id": 61,
            "position_chara": -20.0,
            "position_text": 5.0,
            "priority": 2,
            "start_at": "2023-01-26 00:00:00"
        },
        "pk": 61
    }
]