{
    "m_GameObject": {
        "m_FileID": 0,
        "m_PathID": 0
    },
    "m_Enabled": 1,
    "m_Script": {
        "m_FileID": 0,
        "m_PathID": 5812833946668022119
    },
    "m_Name": "aj2000",
    "Normal": {
        "m_FileID": 0,
        "m_PathID": -5570053080238975143
    },
    "Smile": {
        "m_FileID": 0,
        "m_PathID": -5570053080238975143
    },
    "Sad": {
        "m_FileID": 0,
        "m_PathID": -5570053080238975143
    },
    "Angry": {
        "m_FileID": 0,
        "m_PathID": -5570053080238975143
    }
}