{
    "m_GameObject": {
        "m_FileID": 0,
        "m_PathID": 0
    },
    "m_Enabled": 1,
    "m_Script": {
        "m_FileID": 0,
        "m_PathID": 5812833946668022119
    },
    "m_Name": "saba",
    "Normal": {
        "m_FileID": 0,
        "m_PathID": -6281383332583132528
    },
    "Smile": {
        "m_FileID": 0,
        "m_PathID": 2491454648056409291
    },
    "Sad": {
        "m_FileID": 0,
        "m_PathID": -6281383332583132528
    },
    "Angry": {
        "m_FileID": 0,
        "m_PathID": -2468784353635613152
    }
}