{
    "m_GameObject": {
        "m_FileID": 0,
        "m_PathID": 0
    },
    "m_Enabled": 1,
    "m_Script": {
        "m_FileID": 0,
        "m_PathID": 5812833946668022119
    },
    "m_Name": "alva",
    "Normal": {
        "m_FileID": 0,
        "m_PathID": -3219438639617437508
    },
    "Smile": {
        "m_FileID": 0,
        "m_PathID": 6655429905267865016
    },
    "Sad": {
        "m_FileID": 0,
        "m_PathID": -3219438639617437508
    },
    "Angry": {
        "m_FileID": 0,
        "m_PathID": -5537907527489825063
    }
}