{
    "m_GameObject": {
        "m_FileID": 0,
        "m_PathID": -6509789196222547671
    },
    "m_Enabled": 1,
    "m_Script": {
        "m_FileID": 0,
        "m_PathID": -7324853881860451077
    },
    "m_Name": "AUTOBATTLE_BADGE",
    "m_EventName": "PROHIBIT",
    "m_Events": {
        "m_PersistentCalls": {
            "m_Calls": [
                {
                    "m_Target": {
                        "m_FileID": 0,
                        "m_PathID": 7130812883173034447
                    },
                    "m_TargetAssemblyTypeName": "",
                    "m_MethodName": "OnAutoBattleSetting",
                    "m_Mode": 0,
                    "m_Arguments": {
                        "m_ObjectArgument": {
                            "m_FileID": 0,
                            "m_PathID": 0
                        },
                        "m_ObjectArgumentAssemblyTypeName": "UnityEngine.Object, UnityEngine",
                        "m_IntArgument": 0,
                        "m_FloatArgument": 0.0,
                        "m_StringArgument": "",
                        "m_BoolArgument": 0
                    },
                    "m_CallState": 2
                }
            ]
        }
    },
    "m_Value": {
        "m_Fields": [
            {
                "m_Group": 0,
                "m_Type": 8,
                "m_Key": "item",
                "m_Obj": {
                    "m_FileID": 0,
                    "m_PathID": 298991227857736656
                },
                "m_ScriptableObj": {
                    "m_FileID": 0,
                    "m_PathID": 0
                },
                "m_Serialize": ""
            }
        ]
    }
}