﻿001	Huzzaaaaahh!	VO_neena.neena_sys_0032
002	Ngh! N-no...!	VO_chloe.chloe_battle_0020
003	How could this happen?!	VO_chloe.chloe_battle_0023
004	Do you understand now?	VO_neena.neena_sys_0001
005	I...	VO_chloe.chloe_battle_0019
006	Chloe... Please listen to me.	VO_neena.neena_sys_0003