﻿001		VO_yagamiiori.yagamiiori_sys_0030
002		VO_shayna.shayna_sys_0001
003	
004		VO_shayna.shayna_sys_0007
005		VO_yagamiiori.yagamiiori_sys_0010
006		VO_rusia.rusia_sys_0044
007		VO_shayna.shayna_sys_0004
008	
009	
010		VO_rusia.rusia_sys_0006
011	
012		VO_rusia.rusia_sys_0007
013		VO_terrybogard.terrybogard_sys_0001
014		VO_shiranuimai.shiranuimai_sys_0025
015		VO_terrybogard.terrybogard_sys_0004
016	
017		VO_terrybogard.terrybogard_sys_0006
018	
019		VO_laura.laura_sys_0001
020	
021		VO_laura.laura_sys_0007
022		VO_shiranuimai.shiranuimai_sys_0031
023	
024		VO_laura.laura_sys_0031
025	
026		VO_laura.laura_sys_0006
027	
028		VO_laura.laura_sys_0001
029	
030		VO_laura.laura_sys_0037
031	
032		VO_shiranuimai.shiranuimai_sys_0045
033	
034		VO_laura.laura_sys_0030
035	
036	
037		VO_terrybogard.terrybogard_sys_0010
038	
039		VO_laura.laura_sys_0007
040		VO_shiranuimai.shiranuimai_sys_0006
041	
042	
043		VO_laura.laura_sys_0008
044		VO_kuladiamond.kuladiamond_sys_0031
045		VO_laura.laura_sys_0001
046		VO_terrybogard.terrybogard_sys_0004