﻿001		VO_emilia.emilia_battle_0007
002		VO_subaru.subaru_sys_0029
003	
004		VO_subaru.subaru_battle_0019
005	
006	
007		VO_syrma.syrma_battle_0001
008		VO_spica.spica_chara_1003
009		VO_subaru.subaru_sys_0009
010		VO_emilia.emilia_sys_0001
011		VO_syrma.syrma_sys_0031
012	
013	
014		VO_subaru.subaru_sys_0026
015		VO_spica.spica_sys_0041
016	
017	