﻿001		VO_petelgeuse.petelgeuse_sys_0010
002		VO_petelgeuse.petelgeuse_sys_0013
003	
004		VO_petelgeuse.petelgeuse_sys_0031
005	
006		VO_petelgeuse.petelgeuse_sys_0008
007		VO_petelgeuse.petelgeuse_sys_0023
008	
009		VO_petelgeuse.petelgeuse_sys_0009
010	
011	
012		VO_subaru.subaru_sys_0031
013		VO_spica.spica_sys_0004
014	
015		VO_syrma.syrma_sys_0006
016	
017		VO_emilia.emilia_sys_0031
018		VO_subaru.subaru_sys_0004
019		VO_syrma.syrma_sys_0030
020		VO_subaru.subaru_sys_0017
021	
022		VO_syrma.syrma_sys_0031
023	
024		VO_syrma.syrma_sys_0018
025	
026	
027		VO_emilia.emilia_sys_0001
028		VO_spica.spica_chara_1003
029	
030	
031		VO_subaru.subaru_sys_0001
032		VO_spica.spica_sys_0004
033	
034		VO_spica.spica_sys_0012
035		VO_syrma.syrma_sys_0030
036	
037		VO_subaru.subaru_sys_0031
038	
039		VO_subaru.subaru_sys_0004
040	
041		VO_subaru.subaru_sys_0001
042	
043		VO_syrma.syrma_sys_0006
044		VO_subaru.subaru_sys_0004
045	
046		VO_subaru.subaru_sys_0007
047	
048	
049		VO_pack.pack_sys_0001
050		VO_emilia.emilia_sys_0031
051	
052		VO_emilia.emilia_sys_0032
053	
054		VO_emilia.emilia_sys_0026
055	
056		VO_emilia.emilia_sys_0004
057	
058		VO_emilia.emilia_sys_0026
059	
060		VO_subaru.subaru_sys_0037
061		VO_emilia.emilia_sys_0017
062	
063		VO_syrma.syrma_sys_0003
064	
065	
066		VO_emilia.emilia_sys_0011
067	
068		VO_emilia.emilia_sys_0007
069		VO_subaru.subaru_sys_0031
070		VO_petelgeuse.petelgeuse_battle_0014
071	
072	
073		VO_syrma.syrma_sys_0006
074		VO_petelgeuse.petelgeuse_sys_0010
075	