{
    "m_GameObject": {
        "m_FileID": 0,
        "m_PathID": 0
    },
    "m_Enabled": 1,
    "m_Script": {
        "m_FileID": 0,
        "m_PathID": 8500361845717435566
    },
    "m_Name": "ParamChangeEffects",
    "Effects": [
        {
            "TypeName": "ATK",
            "OnBuff": {
                "m_FileID": 0,
                "m_PathID": 0
            },
            "OnDebuff": {
                "m_FileID": 0,
                "m_PathID": 0
            }
        },
        {
            "TypeName": "DEF",
            "OnBuff": {
                "m_FileID": 0,
                "m_PathID": 0
            },
            "OnDebuff": {
                "m_FileID": 0,
                "m_PathID": 0
            }
        },
        {
            "TypeName": "MAG",
            "OnBuff": {
                "m_FileID": 0,
                "m_PathID": 0
            },
            "OnDebuff": {
                "m_FileID": 0,
                "m_PathID": 0
            }
        },
        {
            "TypeName": "MND",
            "OnBuff": {
                "m_FileID": 0,
                "m_PathID": 0
            },
            "OnDebuff": {
                "m_FileID": 0,
                "m_PathID": 0
            }
        },
        {
            "TypeName": "REC",
            "OnBuff": {
                "m_FileID": 0,
                "m_PathID": 0
            },
            "OnDebuff": {
                "m_FileID": 0,
                "m_PathID": 0
            }
        },
        {
            "TypeName": "SPD",
            "OnBuff": {
                "m_FileID": 0,
                "m_PathID": 0
            },
            "OnDebuff": {
                "m_FileID": 0,
                "m_PathID": 0
            }
        },
        {
            "TypeName": "CRI",
            "OnBuff": {
                "m_FileID": 0,
                "m_PathID": 0
            },
            "OnDebuff": {
                "m_FileID": 0,
                "m_PathID": 0
            }
        },
        {
            "TypeName": "LUK",
            "OnBuff": {
                "m_FileID": 0,
                "m_PathID": 0
            },
            "OnDebuff": {
                "m_FileID": 0,
                "m_PathID": 0
            }
        }
    ]
}