{
    "m_GameObject": {
        "m_FileID": 0,
        "m_PathID": 0
    },
    "m_Enabled": 1,
    "m_Script": {
        "m_FileID": 0,
        "m_PathID": 5812833946668022119
    },
    "m_Name": "alch",
    "Normal": {
        "m_FileID": 0,
        "m_PathID": 3082583975936654498
    },
    "Smile": {
        "m_FileID": 1,
        "m_PathID": 1387442720583875570
    },
    "Sad": {
        "m_FileID": 2,
        "m_PathID": -3141327579249573598
    },
    "Angry": {
        "m_FileID": 0,
        "m_PathID": -3996999896393380008
    }
}