{
    "m_GameObject": {
        "m_FileID": 0,
        "m_PathID": 0
    },
    "m_Enabled": 1,
    "m_Script": {
        "m_FileID": 0,
        "m_PathID": 69
    },
    "m_Name": "HomeQuestButtonSprite",
    "Items": [
        {
            "n": "2020may",
            "s": {
                "m_FileID": 66,
                "m_PathID": -5191559593314055961
            }
        },
        {
            "n": "2020june",
            "s": {
                "m_FileID": 44,
                "m_PathID": 5258407824563877896
            }
        }
    ]
}