﻿001	Give it up.
002	...No
003	*Sigh* Then take this.
004	Attack, Red.
005	!?
006	Urgh... How?
007	(Soren collapsed onto the floor unconscious.)
008	Die!
009	Wait... Scan him.
010	...Why Berith?
011	You always say that if it's a problem, kill it.
012	I did... But the Queen may be interested in him. That power feels familiar.
013	...Noted.
014	Red took the girl and left Soren in the alley.