﻿001	これより円環の儀式を行う<br>生贄をこれへ
002	…ピィィ…
003	彼の者のアルケミィを<br>血とともに…聖なる石の胎内へ
004	ピギッ…!!	VO_desutoruku.desutoruku_sys_0051
005	（ああ…）	VO_kasumi.kasumi_sys_0018
006	ピー…!!<br>ピギィィィィィッ!!!
007	（ごめんなさい…！）
008	ピィィィィ…<br>ピィィィィィ………！
009	（ごめんなさい、ごめんなさい、<br>ごめんなさい、ごめんなさい…!!）
010	…………夢…………？
011	（今のは…………）
012	……ここ…どこだろ……
013	……………………
014	…エドガーさん…<br>ここ…お墓…？	VO_kasumi.kasumi_sys_0001
015	…デストルークが初めて現れた日<br>俺たちはこの村で戦っていた	VO_edgar.edgar_sys_0037
016	じゃあ…このお墓って…	VO_kasumi.kasumi_sys_0021
017	…………
018	…………
019	…カスミ<br>お前はここから引き返せ	VO_edgar.edgar_sys_0031
020	え…!?	VO_kasumi.kasumi_sys_0025
021	ティナとリズベットともはぐれちまった…	VO_edgar.edgar_sys_0042
022	さすがに俺ひとりじゃどうにもならない<br>お前がいても…今のお前じゃな<br>こっちの都合で呼び出しておいて悪いが…	VO_edgar.edgar_sys_0036
023	あとは、自由に生きろ
024	…エドガー…さん…？
025	まだ闇に飲み込まれてねえ土地もある<br>運がよけりゃなんとかなるだろ<br>…じゃあな	VO_edgar.edgar_sys_0037
026	…ふざけないで…<br>…ふざけないでください！	VO_kasumi.kasumi_sys_0042
027	…あ？<br>何言って…	VO_edgar.edgar_sys_0013
028	わたしを怒らせて、<br>これ以上巻き込まないつもりですか？	VO_kasumi.kasumi_sys_0013
029	そうやってわたしを逃がして<br>自分はひとりでデストルークと<br>戦うつもりですか？
030	ひとりで…<br>何ができるっていうんですか!?	VO_kasumi.kasumi_sys_0042
031	…お前には関係ねえ<br>これは、こっちの世界の問題だ	VO_edgar.edgar_sys_0014
032	そっちが勝手に召喚したくせに！<br>戦えだの、消滅しろだの言っておいて<br>…今度は逃げろって…？
033	いい加減にしてください!!<br>…女に涙は流させないってやつですか？
034	…………<br>そんなんじゃねえ！	VO_edgar.edgar_battle_0023
035	男の人に守ってもらう必要なんて<br>ありません…ひとりでカッコつけて…勝手に<br>全部背負いこまないでください!!
036	…………!!	VO_edgar.edgar_sys_0042
037	ウオオオオオオオオオンッ!!
038	くっ…！<br>…カスミ!!	VO_edgar.edgar_battle_0019
039	…お願い…止まって…!!	VO_kasumi.kasumi_sys_0042
040	…………!?<br>前は助けてくれたのに…<br>わたし…力が…!?	VO_kasumi.kasumi_sys_0020
041	逃げろ、カスミ!!	VO_edgar.edgar_sys_0042
042	…………！
