﻿001	ディ、ディオス…！<br>グッ…！　ガハッ…!!	141_z_3d.logi_story0105_0079
002	やれやれ…<br>あれだけ豪語しておきながら、このザマか？	141_z_3d.sabaleta_story0105_0050
003	だから言っただろ…<br>簡単に心を入れ替えるような<br>ヤツじゃないって？	141_z_3d.sabaleta_story0105_0051
004	サ、サバレタ…！　…グ…！	141_z_3d.logi_story0105_0080
005	ったく…どこ行く気だよ？<br>そんな身体で、<br>ヤツに勝てると思ってんのか？	141_z_3d.sabaleta_story0105_0052
006	グ…う、うるさい…！	141_z_3d.logi_story0105_0081
007	熱くなるなっつってんだろ？<br>…少し、頭を冷やしてろ	141_z_3d.sabaleta_story0105_0053
008	ど…どこへ行く…！	141_z_3d.logi_story0105_0082
009	何…ちょっと、野暮用ってヤツだ	141_z_3d.sabaleta_story0105_0054
010	ま、待て…！<br>ク、クソッ…こんな時に…！	141_z_3d.logi_story0105_0083