﻿001	ガッ…!!!<br>ガハッ…	VO_dios.dios_battle_0027
002	グ…！<br>ディ、ディオス…!!	VO_bertrand.bertrand_sys_0012
003	な、なんて強さだ…！<br>こんな化け物…<br>誰が勝てるっていうんだ…！　ガハッ！	VO_dios.dios_battle_0022
004	ハハハハハハハハハッ!!!<br>見たか!!<br>これが古の魔人の力だ!!	VO_thiefm.thiefm_sys_0023
005	いくら聖教騎士団といえど、<br>この力に勝てるはずが…<br>…え…？
006	オオオオオォォォーッ!!!	VO_Mmajin.Mmajin_battle_0002
007	ガァッ…!!!　ガハッ…!!!	VO_thiefm.thiefm_battle_0026
008	と、蜥蜴旅団員を…!?<br>どうなっている…!?	VO_dios.dios_sys_0025
009	…………
