﻿001	ぐ…!!	VO_logi.logi_battle_0019
002	ロギ!!
003	大丈夫です!!<br>…サバレタはどこだ
004	ここで死ぬ貴様らには<br>関係のないことだ
005	僕達は…ここで死ぬわけにはいかない<br>守るべき国が…<br>守るべき家族がいるから…!!	VO_logi.logi_sys_0015
006	俺達からは一方的に奪えても、<br>自らが奪われる側には回りたくないと<br>いうわけか…!!
007	…………!!
008	…ここで死なずとも<br>お前達は必ず地獄へと落ちる
009	我らが“憤怒”がお前達を焼き尽くす<br>…時は、間もなく満ちるのだ…!!
010	不完全な“片翼”が奪われようと<br>我らが“翼”は失われたわけではない!!
011	…!!<br>まさか…魔人のことか…!!	VO_logi.logi_sys_0018
012	死ね!!<br>エンヴィリアの者ども!!	VO_thiefm.thiefm_sys_0013
013	…………!!
