﻿001	…………
002	ディオス!?　どうしたんだ？
003	…先に行け
004	え？
005	ジャムどもの増殖が予想よりも早い<br>誰かがここで、<br>奴らを食い止める必要がある
006	ディオス…
007	もともと、俺は巻き込まれただけだ<br>…お前が見届けろ
008	…いや
009	俺も、残るよ<br>あのジャムの量は、<br>いくら聖教騎士団でも手に余る
010	蒼の団、反転！<br>ここで彼らの帰る道を守る！
011	ハッ！　我ら、蒼炎の意志に賭けて！
012	…ふん、足手まといにはなるなよ！
013	どっちが…！
