001	ティナ、ベルゼバブを俺に	QE05_5_3_01_a_3d.kamui_story0505_0001
002	構わないが…<br>この石はすでに力を失っているぞ？	QE05_5_3_01_a_3d.tina_story0505_0001
003	それは違う。聖石の力は本来、<br>決して尽きることはない。それこそが、<br>我らセフィラの民の“罪”なのだから	QE05_5_3_01_a_3d.kamui_story0505_0002
004	何を言って…	QE05_5_3_01_a_3d.tina_story0505_0002
005	な…！<br>この輝きは、古代竜を倒した時の――!?	QE05_5_3_01_a_3d.moca_story0505_0001
006	聖石ベルゼバブこそが、<br>ジャムをこの世に生み出した根源	QE05_5_3_01_a_3d.kamui_story0505_0003
007	なればこそ、その聖石の力を持って<br>すべての因縁を清算する…！	QE05_5_3_01_a_3d.kamui_story0505_0004
008	“我はここに、古き盟約を求めん！”	QE05_5_3_01_a_3d.kamui_story0505_0005
009	“其は、我らセフィラの民が<br>この大地と交わした、原初の誓い”	QE05_5_3_01_a_3d.kamui_story0505_0006
010	“地に豊穣を、天には慈雨を<br>そして我らに、扉を開く資格を与えよ”	QE05_5_3_01_a_3d.kamui_story0505_0007
011	“我が魂と生涯とを縁として――<br>来たれ、セフィラの護り手よ!!”	QE05_5_3_01_a_3d.kamui_story0505_0008
012	これは、幻影兵の召喚…？<br>だが、この数は…！	QE05_5_3_01_a_3d.tina_story0505_0003
013	これが、聖石の力なのか…!?	QE05_5_3_01_a_3d.logi_story0505_0001
014	――ぁ	QE05_5_3_01_a_3d.agasa_story0505_0001
015	（私、知ってる…？<br>この光を、確かに、どこかで…）	QE05_5_3_01_a_3d.agasa_story0505_0002
016	我が生涯と共に歩みし、友たちよ<br>どうか今一度、俺に力を貸してくれ…！	QE05_5_3_01_a_3d.kamui_story0505_0009
