﻿001	ディオス！　この力は…!?	tut004a.logi_story0101_0030
002	間違いない…『錬金術』だ！<br>どうやら俺達も、<br>ヤツらと同じ力を手にしちまったようだな	tut004a.dios_story0101_0027
003	…っ！<br>ネヴィルの身体にも、光の筋が！	tut004a.logi_story0101_0031
004	ヤツの強さの秘密がわかったぜ<br>ヤツは、錬金術でネヴィル将軍の魂から<br>『錬成』された幻影兵(ファントム)だ！	tut004a.dios_story0101_0028
004a	まともにやり合っても、<br>勝てるはずが無い…だが…	tut004a.dios_story0101_0028_02
005	同じ《力》を手にした今なら…<br>ネヴィルに勝てる!!	tut004a.logi_story0101_0032
006	ああ!!<br>来い、ラースの亡霊…<br>あの世へ送り返してやる!!	tut004a.dios_story0101_0029
007	グォオオオオオ!!!	tut004a.nevile_story0101_0002