﻿001	“死の宣告者”と呼ばれ<br>
002	<br>恐れられる占い師…
003	<br><br>“ウズマ”
004	彼女のもとに急ぐのは、<br>
005	<br>後世“伝説の鍛冶師”と
006	<br><br>言い伝えられる事になる父と娘…
007	両者が邂逅する時、
008	<br>運命の砂時計が、反転する
009	─
010	全ての砂がこぼれ落ちた時
011	<br>彼らがたどり着くのは
012	─