{
    "m_GameObject": {
        "m_FileID": 0,
        "m_PathID": 0
    },
    "m_Enabled": 1,
    "m_Script": {
        "m_FileID": 0,
        "m_PathID": 5812833946668022119
    },
    "m_Name": "patr",
    "Normal": {
        "m_FileID": 0,
        "m_PathID": -795135844566286393
    },
    "Smile": {
        "m_FileID": 0,
        "m_PathID": -8036923611168103604
    },
    "Sad": {
        "m_FileID": 0,
        "m_PathID": -795135844566286393
    },
    "Angry": {
        "m_FileID": 0,
        "m_PathID": -795135844566286393
    }
}