{
    "m_GameObject": {
        "m_FileID": 0,
        "m_PathID": 0
    },
    "m_Enabled": 1,
    "m_Script": {
        "m_FileID": 0,
        "m_PathID": 5812833946668022119
    },
    "m_Name": "fion_child",
    "Normal": {
        "m_FileID": 0,
        "m_PathID": 5859824627093236767
    },
    "Smile": {
        "m_FileID": 0,
        "m_PathID": 5859824627093236767
    },
    "Sad": {
        "m_FileID": 0,
        "m_PathID": 5859824627093236767
    },
    "Angry": {
        "m_FileID": 0,
        "m_PathID": 3479201342517392163
    }
}