{
    "m_GameObject": {
        "m_FileID": 0,
        "m_PathID": 0
    },
    "m_Enabled": 1,
    "m_Script": {
        "m_FileID": 0,
        "m_PathID": 5812833946668022119
    },
    "m_Name": "ev_citizen",
    "Normal": {
        "m_FileID": 0,
        "m_PathID": 5310390248183820521
    },
    "Smile": {
        "m_FileID": 0,
        "m_PathID": 4876443880770593775
    },
    "Sad": {
        "m_FileID": 0,
        "m_PathID": 6995653484901299774
    },
    "Angry": {
        "m_FileID": 0,
        "m_PathID": 1850216653927463694
    }
}