{
    "m_GameObject": {
        "m_FileID": 0,
        "m_PathID": 0
    },
    "m_Enabled": 1,
    "m_Script": {
        "m_FileID": 0,
        "m_PathID": 5812833946668022119
    },
    "m_Name": "grow_agat",
    "Normal": {
        "m_FileID": 0,
        "m_PathID": -7034198971732916194
    },
    "Smile": {
        "m_FileID": 0,
        "m_PathID": -1716049924126309323
    },
    "Sad": {
        "m_FileID": 0,
        "m_PathID": 8740425432915000058
    },
    "Angry": {
        "m_FileID": 0,
        "m_PathID": -7034198971732916194
    }
}