{
    "m_GameObject": {
        "m_FileID": 0,
        "m_PathID": 0
    },
    "m_Enabled": 1,
    "m_Script": {
        "m_FileID": 0,
        "m_PathID": 5812833946668022119
    },
    "m_Name": "alva_messiah",
    "Normal": {
        "m_FileID": 0,
        "m_PathID": -4440729409717383480
    },
    "Smile": {
        "m_FileID": 0,
        "m_PathID": -4440729409717383480
    },
    "Sad": {
        "m_FileID": 0,
        "m_PathID": -4440729409717383480
    },
    "Angry": {
        "m_FileID": 0,
        "m_PathID": -4440729409717383480
    }
}