{
    "m_GameObject": {
        "m_FileID": 0,
        "m_PathID": 0
    },
    "m_Enabled": 1,
    "m_Script": {
        "m_FileID": 0,
        "m_PathID": 522912102410608360
    },
    "m_Name": "IAPBoard_SideTabs",
    "Items": [
        {
            "n": "ui_gl_iap_side_button_bundle_purchase",
            "s": {
                "m_FileID": 0,
                "m_PathID": 3002001222911012930
            }
        },
        {
            "n": "ui_gl_iap_side_button_gem_purchase",
            "s": {
                "m_FileID": 0,
                "m_PathID": 8135242068895532834
            }
        },
        {
            "n": "ui_gl_iap_side_button_Subscription",
            "s": {
                "m_FileID": 0,
                "m_PathID": 8756337263610964922
            }
        },
        {
            "n": "ui_gl_iap_side_button_tapjoy",
            "s": {
                "m_FileID": 0,
                "m_PathID": 831109883690138064
            }
        },
        {
            "n": "ui_gl_iap_side_button_seasonpass",
            "s": {
                "m_FileID": 0,
                "m_PathID": -6054180311845785792
            }
        },
        {
            "n": "ui_gl_iap_side_button_LimitedTime",
            "s": {
                "m_FileID": 0,
                "m_PathID": 2385751750499689702
            }
        },
        {
            "n": "ui_gl_iap_side_season_pass_IV_0",
            "s": {
                "m_FileID": 0,
                "m_PathID": 5479265413600868361
            }
        },
        {
            "n": "ui_gl_iap_side_season_pass_V_0",
            "s": {
                "m_FileID": 0,
                "m_PathID": -1032310444282228138
            }
        },
        {
            "n": "ui_gl_iap_side_button_hot_deal",
            "s": {
                "m_FileID": 0,
                "m_PathID": 4046091363286889191
            }
        },
        {
            "n": "ui_gl_iap_side_season_pass_VI_0",
            "s": {
                "m_FileID": 0,
                "m_PathID": -4914511587957228088
            }
        }
    ]
}