{
    "m_GameObject": {
        "m_FileID": 0,
        "m_PathID": 0
    },
    "m_Enabled": 1,
    "m_Script": {
        "m_FileID": 0,
        "m_PathID": -4041471252985220290
    },
    "m_Name": "F_hair_long_000",
    "Targets": [
        {
            "TargetName": "bone_hair_00",
            "Kinematic": 0.0,
            "Gravity": 0.10000000149011612,
            "Length": 1.0,
            "ForwardAxis": 0,
            "Damping": 0.5,
            "Acceleration": 30.0,
            "AngularLimit": 50.0
        },
        {
            "TargetName": "bone_hair_C01",
            "Kinematic": 0.5,
            "Gravity": 0.10000000149011612,
            "Length": 1.0,
            "ForwardAxis": 0,
            "Damping": 0.5,
            "Acceleration": 30.0,
            "AngularLimit": 50.0
        },
        {
            "TargetName": "bone_hair_L01",
            "Kinematic": 0.5,
            "Gravity": 0.10000000149011612,
            "Length": 1.0,
            "ForwardAxis": 0,
            "Damping": 0.5,
            "Acceleration": 30.0,
            "AngularLimit": 50.0
        },
        {
            "TargetName": "bone_hair_R01",
            "Kinematic": 0.5,
            "Gravity": 0.10000000149011612,
            "Length": 1.0,
            "ForwardAxis": 0,
            "Damping": 0.5,
            "Acceleration": 30.0,
            "AngularLimit": 50.0
        },
        {
            "TargetName": "bone_hair_FL01",
            "Kinematic": 0.25,
            "Gravity": 0.10000000149011612,
            "Length": 1.0,
            "ForwardAxis": 0,
            "Damping": 0.5,
            "Acceleration": 30.0,
            "AngularLimit": 50.0
        },
        {
            "TargetName": "bone_hair_FR01",
            "Kinematic": 0.25,
            "Gravity": 0.10000000149011612,
            "Length": 1.0,
            "ForwardAxis": 0,
            "Damping": 0.5,
            "Acceleration": 30.0,
            "AngularLimit": 50.0
        }
    ],
    "SkirtTraceTargets": []
}