{
    "m_GameObject": {
        "m_FileID": 0,
        "m_PathID": 0
    },
    "m_Enabled": 1,
    "m_Script": {
        "m_FileID": 0,
        "m_PathID": 5812833946668022119
    },
    "m_Name": "tango",
    "Normal": {
        "m_FileID": 0,
        "m_PathID": 3528577985491086873
    },
    "Smile": {
        "m_FileID": 0,
        "m_PathID": 3528577985491086873
    },
    "Sad": {
        "m_FileID": 0,
        "m_PathID": -7505910649954644729
    },
    "Angry": {
        "m_FileID": 0,
        "m_PathID": -4157409704922093697
    }
}