{
    "m_GameObject": {
        "m_FileID": 0,
        "m_PathID": 0
    },
    "m_Enabled": 1,
    "m_Script": {
        "m_FileID": 0,
        "m_PathID": 5812833946668022119
    },
    "m_Name": "mstr",
    "Normal": {
        "m_FileID": 0,
        "m_PathID": -9220343231199926241
    },
    "Smile": {
        "m_FileID": 0,
        "m_PathID": -9220343231199926241
    },
    "Sad": {
        "m_FileID": 0,
        "m_PathID": -9220343231199926241
    },
    "Angry": {
        "m_FileID": 0,
        "m_PathID": -9220343231199926241
    }
}