{
    "m_GameObject": {
        "m_FileID": 0,
        "m_PathID": 0
    },
    "m_Enabled": 1,
    "m_Script": {
        "m_FileID": 0,
        "m_PathID": 5812833946668022119
    },
    "m_Name": "agat",
    "Normal": {
        "m_FileID": 0,
        "m_PathID": -4458713746302827747
    },
    "Smile": {
        "m_FileID": 0,
        "m_PathID": -790391434782628773
    },
    "Sad": {
        "m_FileID": 0,
        "m_PathID": 1932905249985653414
    },
    "Angry": {
        "m_FileID": 0,
        "m_PathID": -8638014327165684437
    }
}