{
    "m_GameObject": {
        "m_FileID": 0,
        "m_PathID": 0
    },
    "m_Enabled": 1,
    "m_Script": {
        "m_FileID": 0,
        "m_PathID": 5812833946668022119
    },
    "m_Name": "zayi_robe",
    "Normal": {
        "m_FileID": 0,
        "m_PathID": -2575013924841364958
    },
    "Smile": {
        "m_FileID": 0,
        "m_PathID": 1462920437302672730
    },
    "Sad": {
        "m_FileID": 0,
        "m_PathID": -2575013924841364958
    },
    "Angry": {
        "m_FileID": 0,
        "m_PathID": 3463287894130101287
    }
}