{
    "m_GameObject": {
        "m_FileID": 0,
        "m_PathID": 0
    },
    "m_Enabled": 1,
    "m_Script": {
        "m_FileID": 0,
        "m_PathID": 5812833946668022119
    },
    "m_Name": "court_wiz",
    "Normal": {
        "m_FileID": 0,
        "m_PathID": 9206780348377679935
    },
    "Smile": {
        "m_FileID": 0,
        "m_PathID": 9206780348377679935
    },
    "Sad": {
        "m_FileID": 0,
        "m_PathID": 9206780348377679935
    },
    "Angry": {
        "m_FileID": 0,
        "m_PathID": 9206780348377679935
    }
}