{
    "m_GameObject": {
        "m_FileID": 0,
        "m_PathID": 0
    },
    "m_Enabled": 1,
    "m_Script": {
        "m_FileID": 0,
        "m_PathID": 70
    },
    "m_Name": "HomeQuestBalloonSprite",
    "Items": [
        {
            "n": "2020may",
            "s": {
                "m_FileID": 53,
                "m_PathID": -6296334544953722765
            }
        },
        {
            "n": "2020june",
            "s": {
                "m_FileID": 36,
                "m_PathID": -7536036848382467600
            }
        }
    ]
}