{
    "m_GameObject": {
        "m_FileID": 0,
        "m_PathID": 0
    },
    "m_Enabled": 1,
    "m_Script": {
        "m_FileID": 0,
        "m_PathID": 185
    },
    "m_Name": "HomeQuestBalloonSprite",
    "Items": [
        {
            "n": "2020may",
            "s": {
                "m_FileID": 0,
                "m_PathID": 327
            }
        },
        {
            "n": "2020june",
            "s": {
                "m_FileID": 0,
                "m_PathID": 340
            }
        }
    ]
}