{
    "m_GameObject": {
        "m_FileID": 0,
        "m_PathID": 0
    },
    "m_Enabled": 1,
    "m_Script": {
        "m_FileID": 0,
        "m_PathID": 5812833946668022119
    },
    "m_Name": "ff15_noct",
    "Normal": {
        "m_FileID": 0,
        "m_PathID": -7828477418231146633
    },
    "Smile": {
        "m_FileID": 0,
        "m_PathID": -7691754139741910890
    },
    "Sad": {
        "m_FileID": 0,
        "m_PathID": 7611571167573619633
    },
    "Angry": {
        "m_FileID": 0,
        "m_PathID": -1852173784192943648
    }
}