{
    "m_GameObject": {
        "m_FileID": 0,
        "m_PathID": 0
    },
    "m_Enabled": 1,
    "m_Script": {
        "m_FileID": 0,
        "m_PathID": 4006409426058850973
    },
    "m_Name": "BannerSprites",
    "FolderPath": "UI/Banner_Home/",
    "SpriteNames": [
        "Banner_Home_177_03",
        "Banner_Home_075_00",
        "Banner_Home_088_03",
        "Banner_Home_106_01 ",
        "Banner_Home_098_02 ",
        "Banner_Home_161_03",
        "Banner_Home_159_00",
        "Banner_Home_067_00",
        "Banner_Home_g_shop_220922_41bw",
        "Banner_Home_g_shop_220915_41bv",
        "Banner_Home_g_shop_220908_41bu",
        "Banner_Home_g_shop_220901_41bt",
        "Banner_Home_g_shop_220303_41at",
        "Banner_Home_g_shop_220818_41br",
        "Banner_Home_g_shop_01",
        "Banner_Home_014_02"
    ],
    "Sprites": [
        {
            "m_FileID": 0,
            "m_PathID": 7872151788950207558
        },
        {
            "m_FileID": 0,
            "m_PathID": -5013323089797142763
        },
        {
            "m_FileID": 0,
            "m_PathID": 1346546261005239993
        },
        {
            "m_FileID": 0,
            "m_PathID": -1602825260308110725
        },
        {
            "m_FileID": 0,
            "m_PathID": -5551265106573698038
        },
        {
            "m_FileID": 0,
            "m_PathID": -8684159846090057849
        },
        {
            "m_FileID": 0,
            "m_PathID": -6359920892512450628
        },
        {
            "m_FileID": 0,
            "m_PathID": 4879512970674511464
        },
        {
            "m_FileID": 0,
            "m_PathID": -5775677584264312861
        },
        {
            "m_FileID": 0,
            "m_PathID": 471324746432842340
        },
        {
            "m_FileID": 0,
            "m_PathID": -3494935253060923077
        },
        {
            "m_FileID": 0,
            "m_PathID": 8146096226508773472
        },
        {
            "m_FileID": 0,
            "m_PathID": -742254432143300356
        },
        {
            "m_FileID": 0,
            "m_PathID": 1508945147428001506
        },
        {
            "m_FileID": 0,
            "m_PathID": 8844728840445499806
        },
        {
            "m_FileID": 0,
            "m_PathID": 359843054779768072
        },
        {
            "m_FileID": 0,
            "m_PathID": 2792876121711815818
        }
    ]
}