[
    {
        "fields": {
            "color1": "blue", 
            "color2": "blue", 
            "color3": "blue", 
            "color4": "blue", 
            "color5": "blue", 
            "id": 1, 
            "rarity": 0, 
            "weight": 10
        }, 
        "pk": 1
    }, 
    {
        "fields": {
            "color1": "blue", 
            "color2": "blue", 
            "color3": "blue", 
            "color4": "blue", 
            "color5": "blue", 
            "id": 2, 
            "rarity": 1, 
            "weight": 10
        }, 
        "pk": 2
    }, 
    {
        "fields": {
            "color1": "blue", 
            "color2": "blue", 
            "color3": "blue", 
            "color4": "blue", 
            "color5": "blue", 
            "id": 3, 
            "rarity": 2, 
            "weight": 10
        }, 
        "pk": 3
    }, 
    {
        "fields": {
            "color1": "blue", 
            "color2": "blue", 
            "color3": "blue", 
            "color4": "blue", 
            "color5": "yellow", 
            "id": 4, 
            "rarity": 3, 
            "weight": 10
        }, 
        "pk": 4
    }, 
    {
        "fields": {
            "color1": "blue", 
            "color2": "blue", 
            "color3": "blue", 
            "color4": "yellow", 
            "color5": "yellow", 
            "id": 5, 
            "rarity": 3, 
            "weight": 10
        }, 
        "pk": 5
    }, 
    {
        "fields": {
            "color1": "blue", 
            "color2": "blue", 
            "color3": "yellow", 
            "color4": "yellow", 
            "color5": "yellow", 
            "id": 6, 
            "rarity": 3, 
            "weight": 20
        }, 
        "pk": 6
    }, 
    {
        "fields": {
            "color1": "blue", 
            "color2": "yellow", 
            "color3": "yellow", 
            "color4": "yellow", 
            "color5": "yellow", 
            "id": 7, 
            "rarity": 3, 
            "weight": 20
        }, 
        "pk": 7
    }, 
    {
        "fields": {
            "color1": "yellow", 
            "color2": "yellow", 
            "color3": "yellow", 
            "color4": "yellow", 
            "color5": "yellow", 
            "id": 8, 
            "rarity": 3, 
            "weight": 5
        }, 
        "pk": 8
    }, 
    {
        "fields": {
            "color1": "blue", 
            "color2": "blue", 
            "color3": "blue", 
            "color4": "yellow", 
            "color5": "red", 
            "id": 9, 
            "rarity": 4, 
            "weight": 10
        }, 
        "pk": 9
    }, 
    {
        "fields": {
            "color1": "blue", 
            "color2": "blue", 
            "color3": "yellow", 
            "color4": "red", 
            "color5": "red", 
            "id": 10, 
            "rarity": 4, 
            "weight": 10
        }, 
        "pk": 10
    }, 
    {
        "fields": {
            "color1": "blue", 
            "color2": "yellow", 
            "color3": "red", 
            "color4": "red", 
            "color5": "red", 
            "id": 11, 
            "rarity": 4, 
            "weight": 10
        }, 
        "pk": 11
    }, 
    {
        "fields": {
            "color1": "yellow", 
            "color2": "red", 
            "color3": "red", 
            "color4": "red", 
            "color5": "red", 
            "id": 12, 
            "rarity": 4, 
            "weight": 5
        }, 
        "pk": 12
    }, 
    {
        "fields": {
            "color1": "red", 
            "color2": "red", 
            "color3": "red", 
            "color4": "red", 
            "color5": "red", 
            "id": 13, 
            "rarity": 4, 
            "weight": 5
        }, 
        "pk": 13
    }, 
    {
        "fields": {
            "color1": "blue", 
            "color2": "blue", 
            "color3": "yellow", 
            "color4": "yellow", 
            "color5": "red", 
            "id": 14, 
            "rarity": 4, 
            "weight": 10
        }, 
        "pk": 14
    }, 
    {
        "fields": {
            "color1": "blue", 
            "color2": "yellow", 
            "color3": "yellow", 
            "color4": "red", 
            "color5": "red", 
            "id": 15, 
            "rarity": 4, 
            "weight": 10
        }, 
        "pk": 15
    }, 
    {
        "fields": {
            "color1": "yellow", 
            "color2": "yellow", 
            "color3": "red", 
            "color4": "red", 
            "color5": "red", 
            "id": 16, 
            "rarity": 4, 
            "weight": 5
        }, 
        "pk": 16
    }, 
    {
        "fields": {
            "color1": "blue", 
            "color2": "yellow", 
            "color3": "yellow", 
            "color4": "yellow", 
            "color5": "red", 
            "id": 17, 
            "rarity": 4, 
            "weight": 10
        }, 
        "pk": 17
    }, 
    {
        "fields": {
            "color1": "yellow", 
            "color2": "yellow", 
            "color3": "yellow", 
            "color4": "red", 
            "color5": "red", 
            "id": 18, 
            "rarity": 4, 
            "weight": 5
        }, 
        "pk": 18
    }, 
    {
        "fields": {
            "color1": "yellow", 
            "color2": "yellow", 
            "color3": "yellow", 
            "color4": "yellow", 
            "color5": "red", 
            "id": 19, 
            "rarity": 4, 
            "weight": 5
        }, 
        "pk": 19
    }
]