{
    "m_GameObject": {
        "m_FileID": 0,
        "m_PathID": 0
    },
    "m_Enabled": 1,
    "m_Script": {
        "m_FileID": 0,
        "m_PathID": -280285695284159480
    },
    "m_Name": "wpn_cry_masa_01",
    "Type": 0,
    "PrimaryHidden": 0,
    "PrimaryForceOverride": 0,
    "PrimaryHand": {
        "m_FileID": 0,
        "m_PathID": -3107563758373939085
    },
    "PrimaryRename": "",
    "PrimaryHandChangeLists": [
        {
            "m_FileID": 0,
            "m_PathID": 0
        },
        {
            "m_FileID": 0,
            "m_PathID": -3107563758373939085
        }
    ],
    "SecondaryHidden": 0,
    "SecondaryForceOverride": 0,
    "SecondaryHand": {
        "m_FileID": 0,
        "m_PathID": 0
    },
    "SecondaryRename": "",
    "SecondaryHandChangeLists": [
        {
            "m_FileID": 0,
            "m_PathID": 247525690851390228
        },
        {
            "m_FileID": 0,
            "m_PathID": 2947688648026700620
        }
    ],
    "TertiaryHidden": 0,
    "TertiaryForceOverride": 0,
    "TertiaryPlace": {
        "m_FileID": 0,
        "m_PathID": 0
    },
    "TertiaryRename": "",
    "TertiaryPlaceChangeLists": [],
    "OptionEquipmentLists": []
}